<?xml version="1.0" encoding="utf-8"?>
<COLLADA xmlns="http://www.collada.org/2005/11/COLLADASchema" version="1.4.1">
  <asset><contributor><author></author><authoring_tool>FBX COLLADA exporter</authoring_tool><comments></comments></contributor><created>2013-07-17T00:49:30Z</created><keywords></keywords><modified>2013-07-17T00:49:30Z</modified><revision></revision><subject></subject><title></title><unit meter="0.025400" name="centimeter"></unit><up_axis>Y_UP</up_axis></asset>
  <library_materials>
    <material id="__Chocolate_" name="__Chocolate_">
      <instance_effect url="#__Chocolate_-fx"/>
    </material>
  </library_materials>
  <library_effects>
    <effect id="__Chocolate_-fx" name="__Chocolate_">
      <profile_COMMON>
        <technique sid="standard">
          <phong>
            <emission>
              <color sid="emission">0.000000  0.000000 0.000000 1.000000</color>
            </emission>
            <ambient>
              <color sid="ambient">0.200000  0.200000 0.200000 1.000000</color>
            </ambient>
            <diffuse>
              <color sid="diffuse">0.823529  0.411765 0.117647 1.000000</color>
            </diffuse>
            <specular>
              <color sid="specular">0.000000  0.000000 0.000000 1.000000</color>
            </specular>
            <shininess>
              <float sid="shininess">1.071773</float>
            </shininess>
            <reflective>
              <color sid="reflective">0.000000  0.000000 0.000000 1.000000</color>
            </reflective>
            <reflectivity>
              <float sid="reflectivity">1.000000</float>
            </reflectivity>
            <transparent opaque="RGB_ZERO">
              <color sid="transparent">1.000000  1.000000 1.000000 1.000000</color>
            </transparent>
            <transparency>
              <float sid="transparency">0.000000</float>
            </transparency>
          </phong>
        </technique>
      </profile_COMMON>
    </effect>
  </library_effects>
  <library_geometries>
    <geometry id="group_0-lib" name="group_0Mesh">
      <mesh>
        <source id="group_0-POSITION">
          <float_array id="group_0-POSITION-array" count="336">
72.250000 16.250000 17.000000
50.750000 0.000000 1.000000
72.250000 16.250000 1.000000
50.750000 0.000000 17.000000
72.250000 16.250000 17.000000
51.750000 2.009311 18.000000
50.750000 0.000000 17.000000
70.591530 16.250000 18.000000
72.250000 16.250000 17.000000
50.750000 8.125000 17.000000
50.750000 0.000000 17.000000
50.750000 24.375000 17.000000
50.750000 32.500000 17.000000
0.000000 32.500000 17.000000
0.000000 0.000000 17.000000
50.750000 0.000000 17.000000
50.750000 8.125000 1.000000
50.750000 0.000000 1.000000
50.750000 8.125000 17.000000
72.250000 16.250000 1.000000
50.750000 24.375000 1.000000
50.750000 32.500000 1.000000
50.750000 8.125000 1.000000
50.750000 0.000000 1.000000
0.000000 0.000000 1.000000
0.000000 32.500000 1.000000
51.750000 2.009311 0.000000
72.250000 16.250000 1.000000
50.750000 0.000000 1.000000
70.591530 16.250000 0.000000
50.750000 32.500000 17.000000
72.250000 16.250000 1.000000
50.750000 32.500000 1.000000
72.250000 16.250000 17.000000
51.750000 30.490688 18.000000
72.250000 16.250000 17.000000
50.750000 32.500000 17.000000
70.591530 16.250000 18.000000
70.591530 16.250000 18.000000
51.750000 9.285098 18.000000
51.750000 2.009311 18.000000
51.750000 23.214901 18.000000
51.750000 30.490688 18.000000
0.987425 31.341915 18.000000
0.987425 1.158085 18.000000
51.750000 2.009311 18.000000
50.750000 8.125000 17.000000
50.750000 0.000000 17.000000
51.750000 9.285098 18.000000
50.750000 24.375000 17.000000
50.750000 32.500000 1.000000
50.750000 24.375000 1.000000
50.750000 32.500000 17.000000
0.000000 32.500000 1.000000
50.750000 24.375000 17.000000
50.750000 24.375000 1.000000
0.000000 32.500000 17.000000
0.000000 0.000000 17.000000
0.000000 32.500000 1.000000
0.000000 0.000000 1.000000
0.000000 32.500000 17.000000
50.750000 8.125000 17.000000
0.000000 0.000000 1.000000
50.750000 8.125000 1.000000
0.000000 0.000000 17.000000
50.750000 8.125000 1.000000
51.750000 2.009311 0.000000
50.750000 0.000000 1.000000
51.750000 9.285098 0.000000
70.591530 16.250000 0.000000
51.750000 23.214901 0.000000
51.750000 30.490688 0.000000
51.750000 9.285098 0.000000
51.750000 2.009311 0.000000
0.987425 1.158085 0.000000
0.987425 31.341915 0.000000
72.250000 16.250000 1.000000
51.750000 30.490688 0.000000
50.750000 32.500000 1.000000
70.591530 16.250000 0.000000
51.750000 30.490688 18.000000
50.750000 24.375000 17.000000
51.750000 23.214901 18.000000
50.750000 32.500000 17.000000
50.750000 8.125000 17.000000
0.987425 1.158085 18.000000
0.000000 0.000000 17.000000
51.750000 9.285098 18.000000
0.987425 31.341915 18.000000
50.750000 24.375000 17.000000
0.000000 32.500000 17.000000
51.750000 23.214901 18.000000
0.987425 1.158085 18.000000
0.000000 32.500000 17.000000
0.000000 0.000000 17.000000
0.987425 31.341915 18.000000
50.750000 24.375000 1.000000
51.750000 30.490688 0.000000
51.750000 23.214901 0.000000
50.750000 32.500000 1.000000
50.750000 24.375000 1.000000
0.987425 31.341915 0.000000
0.000000 32.500000 1.000000
51.750000 23.214901 0.000000
0.000000 32.500000 1.000000
0.987425 1.158085 0.000000
0.000000 0.000000 1.000000
0.987425 31.341915 0.000000
50.750000 8.125000 1.000000
0.987425 1.158085 0.000000
51.750000 9.285098 0.000000
0.000000 0.000000 1.000000
</float_array>
          <technique_common>
            <accessor source="#group_0-POSITION-array" count="112" stride="3">
              <param name="X" type="float"/>
              <param name="Y" type="float"/>
              <param name="Z" type="float"/>
            </accessor>
          </technique_common>
        </source>
        <source id="group_0-Normal0">
          <float_array id="group_0-Normal0-array" count="558">
0.602964 -0.797768 0.000000
0.602964 -0.797768 0.000000
0.602964 -0.797768 0.000000
0.602964 -0.797768 0.000000
0.602964 -0.797768 0.000000
0.602964 -0.797768 0.000000
0.426360 -0.564107 0.707107
0.426360 -0.564107 0.707107
0.426360 -0.564107 0.707107
0.426360 -0.564107 0.707107
0.426360 -0.564107 0.707107
0.426360 -0.564107 0.707107
-0.000000 0.000000 1.000000
-0.000000 0.000000 1.000000
-0.000000 0.000000 1.000000
-0.000000 0.000000 1.000000
-0.000000 0.000000 1.000000
-0.000000 0.000000 1.000000
-0.000000 0.000000 1.000000
-0.000000 0.000000 1.000000
-0.000000 0.000000 1.000000
-0.000000 0.000000 1.000000
-0.000000 0.000000 1.000000
-0.000000 0.000000 1.000000
-0.000000 0.000000 1.000000
-0.000000 0.000000 1.000000
-0.000000 0.000000 1.000000
-1.000000 -0.000000 -0.000000
-1.000000 -0.000000 -0.000000
-1.000000 -0.000000 -0.000000
-1.000000 -0.000000 -0.000000
-1.000000 -0.000000 -0.000000
-1.000000 -0.000000 -0.000000
-0.000000 -0.000000 -1.000000
-0.000000 -0.000000 -1.000000
-0.000000 -0.000000 -1.000000
-0.000000 -0.000000 -1.000000
-0.000000 -0.000000 -1.000000
-0.000000 -0.000000 -1.000000
-0.000000 -0.000000 -1.000000
-0.000000 -0.000000 -1.000000
-0.000000 -0.000000 -1.000000
-0.000000 -0.000000 -1.000000
-0.000000 -0.000000 -1.000000
-0.000000 -0.000000 -1.000000
-0.000000 -0.000000 -1.000000
-0.000000 -0.000000 -1.000000
-0.000000 -0.000000 -1.000000
0.426360 -0.564107 -0.707107
0.426360 -0.564107 -0.707107
0.426360 -0.564107 -0.707107
0.426360 -0.564107 -0.707107
0.426360 -0.564107 -0.707107
0.426360 -0.564107 -0.707107
0.602964 0.797768 -0.000000
0.602964 0.797768 -0.000000
0.602964 0.797768 -0.000000
0.602964 0.797768 -0.000000
0.602964 0.797768 -0.000000
0.602964 0.797768 -0.000000
0.426360 0.564107 0.707107
0.426360 0.564107 0.707107
0.426360 0.564107 0.707107
0.426360 0.564107 0.707107
0.426360 0.564107 0.707107
0.426360 0.564107 0.707107
-0.000000 0.000000 1.000000
-0.000000 0.000000 1.000000
-0.000000 0.000000 1.000000
-0.000000 0.000000 1.000000
-0.000000 0.000000 1.000000
-0.000000 0.000000 1.000000
-0.000000 0.000000 1.000000
-0.000000 0.000000 1.000000
-0.000000 0.000000 1.000000
-0.000000 0.000000 1.000000
-0.000000 0.000000 1.000000
-0.000000 0.000000 1.000000
-0.000000 0.000000 1.000000
-0.000000 0.000000 1.000000
-0.000000 0.000000 1.000000
-0.707107 -0.000000 0.707107
-0.707107 -0.000000 0.707107
-0.707107 -0.000000 0.707107
-0.707107 -0.000000 0.707107
-0.707107 -0.000000 0.707107
-0.707107 -0.000000 0.707107
-1.000000 0.000000 -0.000000
-1.000000 0.000000 -0.000000
-1.000000 0.000000 -0.000000
-1.000000 0.000000 -0.000000
-1.000000 0.000000 -0.000000
-1.000000 0.000000 -0.000000
0.158085 0.987425 -0.000000
0.158085 0.987425 -0.000000
0.158085 0.987425 -0.000000
0.158085 0.987425 -0.000000
0.158085 0.987425 -0.000000
0.158085 0.987425 -0.000000
-1.000000 -0.000000 -0.000000
-1.000000 -0.000000 -0.000000
-1.000000 -0.000000 -0.000000
-1.000000 -0.000000 -0.000000
-1.000000 -0.000000 -0.000000
-1.000000 -0.000000 -0.000000
0.158085 -0.987425 0.000000
0.158085 -0.987425 0.000000
0.158085 -0.987425 0.000000
0.158085 -0.987425 0.000000
0.158085 -0.987425 0.000000
0.158085 -0.987425 0.000000
-0.707107 -0.000000 -0.707107
-0.707107 -0.000000 -0.707107
-0.707107 -0.000000 -0.707107
-0.707107 -0.000000 -0.707107
-0.707107 -0.000000 -0.707107
-0.707107 -0.000000 -0.707107
-0.000000 -0.000000 -1.000000
-0.000000 -0.000000 -1.000000
-0.000000 -0.000000 -1.000000
-0.000000 -0.000000 -1.000000
-0.000000 -0.000000 -1.000000
-0.000000 -0.000000 -1.000000
-0.000000 -0.000000 -1.000000
-0.000000 -0.000000 -1.000000
-0.000000 -0.000000 -1.000000
-0.000000 -0.000000 -1.000000
-0.000000 -0.000000 -1.000000
-0.000000 -0.000000 -1.000000
-0.000000 -0.000000 -1.000000
-0.000000 -0.000000 -1.000000
-0.000000 -0.000000 -1.000000
0.426360 0.564107 -0.707107
0.426360 0.564107 -0.707107
0.426360 0.564107 -0.707107
0.426360 0.564107 -0.707107
0.426360 0.564107 -0.707107
0.426360 0.564107 -0.707107
-0.707107 0.000000 0.707107
-0.707107 0.000000 0.707107
-0.707107 0.000000 0.707107
-0.707107 0.000000 0.707107
-0.707107 0.000000 0.707107
-0.707107 0.000000 0.707107
0.112488 -0.702619 0.702619
0.112488 -0.702619 0.702619
0.112488 -0.702619 0.702619
0.112488 -0.702619 0.702619
0.112488 -0.702619 0.702619
0.112488 -0.702619 0.702619
0.112488 0.702619 0.702619
0.112488 0.702619 0.702619
0.112488 0.702619 0.702619
0.112488 0.702619 0.702619
0.112488 0.702619 0.702619
0.112488 0.702619 0.702619
-0.711566 -0.000000 0.702619
-0.711566 -0.000000 0.702619
-0.711566 -0.000000 0.702619
-0.711566 -0.000000 0.702619
-0.711566 -0.000000 0.702619
-0.711566 -0.000000 0.702619
-0.707107 0.000000 -0.707107
-0.707107 0.000000 -0.707107
-0.707107 0.000000 -0.707107
-0.707107 0.000000 -0.707107
-0.707107 0.000000 -0.707107
-0.707107 0.000000 -0.707107
0.112488 0.702619 -0.702619
0.112488 0.702619 -0.702619
0.112488 0.702619 -0.702619
0.112488 0.702619 -0.702619
0.112488 0.702619 -0.702619
0.112488 0.702619 -0.702619
-0.711566 0.000000 -0.702619
-0.711566 0.000000 -0.702619
-0.711566 0.000000 -0.702619
-0.711566 0.000000 -0.702619
-0.711566 0.000000 -0.702619
-0.711566 0.000000 -0.702619
0.112488 -0.702619 -0.702619
0.112488 -0.702619 -0.702619
0.112488 -0.702619 -0.702619
0.112488 -0.702619 -0.702619
0.112488 -0.702619 -0.702619
0.112488 -0.702619 -0.702619
</float_array>
          <technique_common>
            <accessor source="#group_0-Normal0-array" count="186" stride="3">
              <param name="X" type="float"/>
              <param name="Y" type="float"/>
              <param name="Z" type="float"/>
            </accessor>
          </technique_common>
        </source>
        <vertices id="group_0-VERTEX">
          <input semantic="POSITION" source="#group_0-POSITION"/>
        </vertices>
        <triangles count="62" material="__Chocolate_"><input semantic="VERTEX" offset="0" source="#group_0-VERTEX"/><input semantic="NORMAL" offset="1" source="#group_0-Normal0"/><p> 0 0 1 1 2 2 1 3 0 4 3 5 4 6 5 7 6 8 5 9 4 10 7 11 8 12 9 13 10 14 9 15 8 16 11 17 11 18 8 19 12 20 9 21 13 22 14 23 13 24 9 25 11 26 15 27 16 28 17 29 16 30 15 31 18 32 19 33 20 34 21 35 20 36 19 37 22 38 22 39 19 40 23 41 20 42 24 43 25 44 24 45 20 46 22 47 26 48 27 49 28 50 27 51 26 52 29 53 30 54 31 55 32 56 31 57 30 58 33 59 34 60 35 61 36 62 35 63 34 64 37 65 38 66 39 67 40 68 39 69 38 70 41 71 41 72 38 73 42 74 39 75 43 76 44 77 43 78 39 79 41 80 45 81 46 82 47 83 46 84 45 85 48 86 49 87 50 88 51 89 50 90 49 91 52 92 53 93 54 94 55 95 54 96 53 97 56 98 57 99 58 100 59 101 58 102 57 103 60 104 61 105 62 106 63 107 62 108 61 109 64 110 65 111 66 112 67 113 66 114 65 115 68 116 69 117 70 118 71 119 70 120 69 121 72 122 72 123 69 124 73 125 70 126 74 127 75 128 74 129 70 130 72 131 76 132 77 133 78 134 77 135 76 136 79 137 80 138 81 139 82 140 81 141 80 142 83 143 84 144 85 145 86 146 85 147 84 148 87 149 88 150 89 151 90 152 89 153 88 154 91 155 92 156 93 157 94 158 93 159 92 160 95 161 96 162 97 163 98 164 97 165 96 166 99 167 100 168 101 169 102 170 101 171 100 172 103 173 104 174 105 175 106 176 105 177 104 178 107 179 108 180 109 181 110 182 109 183 108 184 111 185</p></triangles>
      </mesh>
    </geometry>
  </library_geometries>
  <library_animations>
    <animation id="SketchUp-anim" name="SketchUp"><animation><source id="SketchUp-Matrix-animation-input"><float_array id="SketchUp-Matrix-animation-input-array" count="0">
</float_array><technique_common><accessor source="#SketchUp-Matrix-animation-input-array" count="0"><param name="TIME" type="float"/></accessor></technique_common></source><source id="SketchUp-Matrix-animation-output-transform"><float_array id="SketchUp-Matrix-animation-output-transform-array" count="0">
</float_array><technique_common><accessor source="#SketchUp-Matrix-animation-output-transform-array" count="0" stride="16"><param type="float4x4"/></accessor></technique_common></source><source id="SketchUp-Interpolations"><Name_array id="SketchUp-Interpolations-array" count="0">
</Name_array><technique_common><accessor source="#SketchUp-Interpolations-array" count="0"><param type="name"/></accessor></technique_common></source><sampler id="SketchUp-Matrix-animation-transform"><input semantic="INPUT" source="#SketchUp-Matrix-animation-input"/><input semantic="OUTPUT" source="#SketchUp-Matrix-animation-output-transform"/><input semantic="INTERPOLATION" source="#SketchUp-Interpolations"/></sampler><channel source="#SketchUp-Matrix-animation-transform" target="SketchUp/matrix"/></animation></animation>
    <animation id="group_0-anim" name="group_0"><animation><source id="group_0-Matrix-animation-input"><float_array id="group_0-Matrix-animation-input-array" count="0">
</float_array><technique_common><accessor source="#group_0-Matrix-animation-input-array" count="0"><param name="TIME" type="float"/></accessor></technique_common></source><source id="group_0-Matrix-animation-output-transform"><float_array id="group_0-Matrix-animation-output-transform-array" count="0">
</float_array><technique_common><accessor source="#group_0-Matrix-animation-output-transform-array" count="0" stride="16"><param type="float4x4"/></accessor></technique_common></source><source id="group_0-Interpolations"><Name_array id="group_0-Interpolations-array" count="0">
</Name_array><technique_common><accessor source="#group_0-Interpolations-array" count="0"><param type="name"/></accessor></technique_common></source><sampler id="group_0-Matrix-animation-transform"><input semantic="INPUT" source="#group_0-Matrix-animation-input"/><input semantic="OUTPUT" source="#group_0-Matrix-animation-output-transform"/><input semantic="INTERPOLATION" source="#group_0-Interpolations"/></sampler><channel source="#group_0-Matrix-animation-transform" target="group_0/matrix"/></animation></animation>
  </library_animations>
  <library_visual_scenes>
    <visual_scene id="ForceArrowShifted" name="ForceArrowShifted">
      <node name="SketchUp" id="SketchUp" sid="SketchUp"><matrix sid="matrix">1.000000 0.000000 0.000000 0.000000 0.000000 0.000000 1.000000 0.000000 0.000000 -1.000000 0.000000 0.000000 0.000000 0.000000 0.000000 1.000000</matrix><extra><technique profile="FCOLLADA"><visibility>1.000000</visibility></technique></extra><node name="group_0" id="group_0" sid="group_0"><matrix sid="matrix">1.000000 0.000000 0.000000 -72.418686 0.000000 1.000000 0.000000 0.000000 0.000000 0.000000 1.000000 0.000000 0.000000 0.000000 0.000000 1.000000</matrix><instance_geometry url="#group_0-lib"><bind_material><technique_common><instance_material symbol="__Chocolate_" target="#__Chocolate_"/></technique_common></bind_material></instance_geometry><extra><technique profile="FCOLLADA"><visibility>1.000000</visibility></technique></extra></node></node>
      <extra><technique profile="MAX3D"><frame_rate>30.000000</frame_rate></technique><technique profile="FCOLLADA"><start_time>0.000000</start_time><end_time>3.333333</end_time></technique></extra>
    </visual_scene>
  </library_visual_scenes>
  <scene>
    <instance_visual_scene url="#ForceArrowShifted"></instance_visual_scene>
  </scene>
</COLLADA>
